^C:\USERS\BOBMA\SOURCE\REPOS\SB_PRACTIC_16.5\X64\DEBUG\SB_PRACTIC_16.5.OBJ
C:\PROGRAM FILES (X86)\WINDOWS KITS\10\LIB\10.0.22621.0\UM\X64\KERNEL32.LIB
C:\PROGRAM FILES (X86)\WINDOWS KITS\10\LIB\10.0.22621.0\UM\X64\USER32.LIB
C:\PROGRAM FILES (X86)\WINDOWS KITS\10\LIB\10.0.22621.0\UM\X64\GDI32.LIB
C:\PROGRAM FILES (X86)\WINDOWS KITS\10\LIB\10.0.22621.0\UM\X64\WINSPOOL.LIB
C:\PROGRAM FILES (X86)\WINDOWS KITS\10\LIB\10.0.22621.0\UM\X64\COMDLG32.LIB
C:\PROGRAM FILES (X86)\WINDOWS KITS\10\LIB\10.0.22621.0\UM\X64\ADVAPI32.LIB
C:\PROGRAM FILES (X86)\WINDOWS KITS\10\LIB\10.0.22621.0\UM\X64\SHELL32.LIB
C:\PROGRAM FILES (X86)\WINDOWS KITS\10\LIB\10.0.22621.0\UM\X64\OLE32.LIB
C:\PROGRAM FILES (X86)\WINDOWS KITS\10\LIB\10.0.22621.0\UM\X64\OLEAUT32.LIB
C:\PROGRAM FILES (X86)\WINDOWS KITS\10\LIB\10.0.22621.0\UM\X64\UUID.LIB
C:\PROGRAM FILES (X86)\WINDOWS KITS\10\LIB\10.0.22621.0\UM\X64\ODBC32.LIB
C:\PROGRAM FILES (X86)\WINDOWS KITS\10\LIB\10.0.22621.0\UM\X64\ODBCCP32.LIB
C:\USERS\BOBMA\SOURCE\REPOS\SB_PRACTIC_16.5\X64\DEBUG\SB_PRACTIC_16.5.OBJ
C:\WINDOWS\GLOBALIZATION\SORTING\SORTDEFAULT.NLS
D:\MICROSOFT VISUAL STUDIO\VISUAL STUDIO\VC\TOOLS\MSVC\14.37.32822\LIB\X64\MSVCPRTD.LIB
D:\MICROSOFT VISUAL STUDIO\VISUAL STUDIO\VC\TOOLS\MSVC\14.37.32822\LIB\X64\MSVCRTD.LIB
D:\MICROSOFT VISUAL STUDIO\VISUAL STUDIO\VC\TOOLS\MSVC\14.37.32822\LIB\X64\OLDNAMES.LIB
D:\MICROSOFT VISUAL STUDIO\VISUAL STUDIO\VC\TOOLS\MSVC\14.37.32822\LIB\X64\VCRUNTIMED.LIB
C:\PROGRAM FILES (X86)\WINDOWS KITS\10\LIB\10.0.22621.0\UCRT\X64\UCRTD.LIB
D:\MICROSOFT VISUAL STUDIO\VISUAL STUDIO\VC\TOOLS\MSVC\14.37.32822\BIN\HOSTX64\X64\CVTRES.EXE
C:\WINDOWS\SYSTEM32\TZRES.DLL
C:\USERS\BOBMA\SOURCE\REPOS\SB_PRACTIC_16.5\X64\DEBUG\VC143.PDB
